{
  "dependencies": {
    "x-ray": {
      "version": "2.0.2",
      "dependencies": {
        "batch": {
          "version": "0.5.2"
        },
        "chalk": {
          "version": "1.1.1",
          "dependencies": {
            "ansi-styles": {
              "version": "2.1.0"
            },
            "escape-string-regexp": {
              "version": "1.0.3"
            },
            "has-ansi": {
              "version": "2.0.0",
              "dependencies": {
                "ansi-regex": {
                  "version": "2.0.0"
                }
              }
            },
            "strip-ansi": {
              "version": "3.0.0",
              "dependencies": {
                "ansi-regex": {
                  "version": "2.0.0"
                }
              }
            },
            "supports-color": {
              "version": "2.0.0"
            }
          }
        },
        "cheerio": {
          "version": "0.19.0",
          "dependencies": {
            "css-select": {
              "version": "1.0.0",
              "dependencies": {
                "css-what": {
                  "version": "1.0.0"
                },
                "domutils": {
                  "version": "1.4.3",
                  "dependencies": {
                    "domelementtype": {
                      "version": "1.3.0"
                    }
                  }
                },
                "boolbase": {
                  "version": "1.0.0"
                },
                "nth-check": {
                  "version": "1.0.1"
                }
              }
            },
            "entities": {
              "version": "1.1.1"
            },
            "htmlparser2": {
              "version": "3.8.3",
              "dependencies": {
                "domhandler": {
                  "version": "2.3.0"
                },
                "domutils": {
                  "version": "1.5.1"
                },
                "domelementtype": {
                  "version": "1.3.0"
                },
                "readable-stream": {
                  "version": "1.1.13",
                  "dependencies": {
                    "core-util-is": {
                      "version": "1.0.1"
                    },
                    "isarray": {
                      "version": "0.0.1"
                    },
                    "string_decoder": {
                      "version": "0.10.31"
                    },
                    "inherits": {
                      "version": "2.0.1"
                    }
                  }
                },
                "entities": {
                  "version": "1.0.0"
                }
              }
            },
            "dom-serializer": {
              "version": "0.1.0",
              "dependencies": {
                "domelementtype": {
                  "version": "1.1.3"
                }
              }
            },
            "lodash": {
              "version": "3.10.1"
            }
          }
        },
        "debug": {
          "version": "2.2.0",
          "dependencies": {
            "ms": {
              "version": "0.7.1"
            }
          }
        },
        "enstore": {
          "version": "1.0.1",
          "dependencies": {
            "monotonic-timestamp": {
              "version": "0.0.8"
            }
          }
        },
        "http-context": {
          "version": "1.1.0",
          "dependencies": {
            "accepts": {
              "version": "1.2.13",
              "dependencies": {
                "negotiator": {
                  "version": "0.5.3"
                }
              }
            },
            "assert": {
              "version": "1.3.0",
              "dependencies": {
                "util": {
                  "version": "0.10.3",
                  "dependencies": {
                    "inherits": {
                      "version": "2.0.1"
                    }
                  }
                }
              }
            },
            "content-disposition": {
              "version": "0.5.0"
            },
            "content-type": {
              "version": "1.0.1"
            },
            "delegates": {
              "version": "0.1.0"
            },
            "destroy": {
              "version": "1.0.3"
            },
            "error-inject": {
              "version": "1.0.0"
            },
            "escape-html": {
              "version": "1.0.3"
            },
            "http-incoming": {
              "version": "0.12.0"
            },
            "http-outgoing": {
              "version": "0.12.0"
            },
            "koa-is-json": {
              "version": "1.0.0"
            },
            "mime-types": {
              "version": "2.1.6",
              "dependencies": {
                "mime-db": {
                  "version": "1.18.0"
                }
              }
            },
            "on-finished": {
              "version": "2.3.0",
              "dependencies": {
                "ee-first": {
                  "version": "1.1.1"
                }
              }
            },
            "parseurl": {
              "version": "1.3.0"
            },
            "querystring": {
              "version": "0.2.0"
            },
            "statuses": {
              "version": "1.2.1"
            },
            "type-is": {
              "version": "1.6.8",
              "dependencies": {
                "media-typer": {
                  "version": "0.3.0"
                }
              }
            },
            "vary": {
              "version": "1.0.1"
            }
          }
        },
        "is-url": {
          "version": "1.2.1"
        },
        "isobject": {
          "version": "1.0.2"
        },
        "object-assign": {
          "version": "2.1.1"
        },
        "prettyjson": {
          "version": "1.1.3",
          "dependencies": {
            "colors": {
              "version": "1.1.2"
            },
            "minimist": {
              "version": "1.2.0"
            }
          }
        },
        "x-ray-crawler": {
          "version": "2.0.2",
          "dependencies": {
            "cheerio": {
              "version": "0.18.0",
              "dependencies": {
                "CSSselect": {
                  "version": "0.4.1",
                  "dependencies": {
                    "CSSwhat": {
                      "version": "0.4.7"
                    },
                    "domutils": {
                      "version": "1.4.3",
                      "dependencies": {
                        "domelementtype": {
                          "version": "1.3.0"
                        }
                      }
                    }
                  }
                },
                "entities": {
                  "version": "1.1.1"
                },
                "htmlparser2": {
                  "version": "3.8.3",
                  "dependencies": {
                    "domhandler": {
                      "version": "2.3.0"
                    },
                    "domutils": {
                      "version": "1.5.1"
                    },
                    "domelementtype": {
                      "version": "1.3.0"
                    },
                    "readable-stream": {
                      "version": "1.1.13",
                      "dependencies": {
                        "core-util-is": {
                          "version": "1.0.1"
                        },
                        "isarray": {
                          "version": "0.0.1"
                        },
                        "string_decoder": {
                          "version": "0.10.31"
                        },
                        "inherits": {
                          "version": "2.0.1"
                        }
                      }
                    },
                    "entities": {
                      "version": "1.0.0"
                    }
                  }
                },
                "dom-serializer": {
                  "version": "0.0.1",
                  "dependencies": {
                    "domelementtype": {
                      "version": "1.1.3"
                    }
                  }
                },
                "lodash": {
                  "version": "2.4.2"
                }
              }
            },
            "delegates": {
              "version": "0.1.0"
            },
            "emitter-component": {
              "version": "1.1.1"
            },
            "enqueue": {
              "version": "1.0.2"
            },
            "ms": {
              "version": "0.7.1"
            },
            "selectn": {
              "version": "0.9.6"
            },
            "sliced": {
              "version": "0.0.5"
            },
            "superagent": {
              "version": "1.4.0",
              "dependencies": {
                "qs": {
                  "version": "2.3.3"
                },
                "formidable": {
                  "version": "1.0.14"
                },
                "mime": {
                  "version": "1.3.4"
                },
                "component-emitter": {
                  "version": "1.1.2"
                },
                "methods": {
                  "version": "1.0.1"
                },
                "cookiejar": {
                  "version": "2.0.1"
                },
                "reduce-component": {
                  "version": "1.0.1"
                },
                "extend": {
                  "version": "1.2.1"
                },
                "form-data": {
                  "version": "0.2.0",
                  "dependencies": {
                    "async": {
                      "version": "0.9.2"
                    },
                    "combined-stream": {
                      "version": "0.0.7",
                      "dependencies": {
                        "delayed-stream": {
                          "version": "0.0.5"
                        }
                      }
                    },
                    "mime-types": {
                      "version": "2.0.14",
                      "dependencies": {
                        "mime-db": {
                          "version": "1.12.0"
                        }
                      }
                    }
                  }
                },
                "readable-stream": {
                  "version": "1.0.27-1",
                  "dependencies": {
                    "core-util-is": {
                      "version": "1.0.1"
                    },
                    "isarray": {
                      "version": "0.0.1"
                    },
                    "string_decoder": {
                      "version": "0.10.31"
                    },
                    "inherits": {
                      "version": "2.0.1"
                    }
                  }
                }
              }
            },
            "wrap-fn": {
              "version": "0.1.4",
              "dependencies": {
                "co": {
                  "version": "3.1.0"
                }
              }
            },
            "yieldly": {
              "version": "0.0.1",
              "dependencies": {
                "is-browser": {
                  "version": "2.0.1"
                }
              }
            }
          }
        },
        "x-ray-parse": {
          "version": "1.0.1",
          "dependencies": {
            "format-parser": {
              "version": "0.0.2"
            }
          }
        },
        "yargs": {
          "version": "3.25.0",
          "dependencies": {
            "camelcase": {
              "version": "1.2.1"
            },
            "cliui": {
              "version": "2.1.0",
              "dependencies": {
                "center-align": {
                  "version": "0.1.1",
                  "dependencies": {
                    "align-text": {
                      "version": "0.1.3",
                      "dependencies": {
                        "kind-of": {
                          "version": "2.0.1",
                          "dependencies": {
                            "is-buffer": {
                              "version": "1.0.2"
                            }
                          }
                        },
                        "longest": {
                          "version": "1.0.1"
                        },
                        "repeat-string": {
                          "version": "1.5.2"
                        }
                      }
                    }
                  }
                },
                "right-align": {
                  "version": "0.1.3",
                  "dependencies": {
                    "align-text": {
                      "version": "0.1.3",
                      "dependencies": {
                        "kind-of": {
                          "version": "2.0.1",
                          "dependencies": {
                            "is-buffer": {
                              "version": "1.0.2"
                            }
                          }
                        },
                        "longest": {
                          "version": "1.0.1"
                        },
                        "repeat-string": {
                          "version": "1.5.2"
                        }
                      }
                    }
                  }
                },
                "wordwrap": {
                  "version": "0.0.2"
                }
              }
            },
            "decamelize": {
              "version": "1.0.0"
            },
            "os-locale": {
              "version": "1.4.0",
              "dependencies": {
                "lcid": {
                  "version": "1.0.0",
                  "dependencies": {
                    "invert-kv": {
                      "version": "1.0.0"
                    }
                  }
                }
              }
            },
            "window-size": {
              "version": "0.1.2"
            },
            "y18n": {
              "version": "3.1.0"
            }
          }
        }
      }
    }
  }
}
